﻿Matric;Nom;Prenom;Mail
8826;AFRIKH;Soulaïman;soulaiman.afrikh@student.vinci.be
8828;AGNELLO;Giordano;giordano.agnello@student.vinci.be
12820;ANSOTTE;Gaëtan;gaetan.ansotte@student.vinci.be
12276;ARTEAGA DAVILA;Quentin;quentin.arteaga@student.vinci.be
4339;AZAOUM;Malik;malik.azaoum@student.vinci.be
14126;BADOT-BERTRAND;Corentin;corentin.badotbertrand@student.vinci.be
8811;BAILLY;Roland;roland.bailly@student.vinci.be
4341;BATSLÉ;Laurent;laurent.batsle@student.vinci.be
4337;BAVAY;Kevin;kevin.bavay@student.vinci.be
8921;BRASSEUR;Alexandre;alexandre.brasseur@student.vinci.be
12668;BRONISZEWSKI;Michal;michal.broniszewski@student.vinci.be
4338;BRUNFAUT;Loïck;loick.brunfaut@student.vinci.be
15125;BULENS;Laurent;laurent.bulens@student.vinci.be
11094;COLET;Antoine;antoine.colet@student.vinci.be
14707;COX;Guylian;guylian.cox@student.vinci.be
14476;DANDOY;Corentin;corentin.dandoy@student.vinci.be
13998;DEGUIDE;Rémi;remi.deguide@student.vinci.be
13945;DELVAUX;Loïc;loic.delvaux@student.vinci.be
3826;DEMAERSCHALK;Charles;charles.demaerschalk@student.vinci.be
8818;DE MAUBEUGE;Maxime;maxime.demaubeuge@student.vinci.be
13668;DESCANTONS de MONTBLANC;Mathieu;mathieu.descantons@student.vinci.be
13206;DEVROEDE;Sylvain;sylvain.devroede@student.vinci.be
14583;DOMINGUEZ FERNANDEZ;Mikaël;mikael.dominguez@student.vinci.be
12886;ERYÖRÜK;Huseyin;huseyin.eryoruk@student.vinci.be
15123;FERNANDEZ GRANDE;David;david.fernandez@student.vinci.be
12283;FLAMAND;Mathieu;mathieu.flamand@student.vinci.be
12466;GASINSKI;Przemyslaw;przemyslaw.gasinski@student.vinci.be
18782;GERMEAU;Fabian;fabian.germeau@student.vinci.be
18409;GIELEN;Alexandre;alexandre.gielen@student.vinci.be
12974;GILLES;Romain;romain.gilles@student.vinci.be
10180;GILLIEAUX;Laetitia;laetitia.gillieaux@student.vinci.be
17949;GIUGE;Philippe;philippe.giuge@student.vinci.be
8412;HACHA;Raphael;raphael.hacha@student.vinci.be
9118;KABASHI;Kaltrinë;kaltrine.kabashi@student.vinci.be
14413;KANDALA MUSANYA;Arnaud;arnaud.kandala@student.vinci.be
10466;KH' LEEH;Younes;younes.khleeh@student.vinci.be
12327;LEMOINE;Arthur;arthur.lemoine@student.vinci.be
14032;LETHÉ;Javier;javier.lethe@student.vinci.be
11637;LOVISETTO;Gary;gary.lovisetto@student.vinci.be
8014;MAANEN;Kevin;kevin.maanen@student.vinci.be
12795;MATHY;Kevin;kevin.mathy@student.vinci.be
5250;MESTDAGH;Kevin;kevin.mestdagh@student.vinci.be
4429;NAVEZ;Gaëtan;gaetan.navez@student.vinci.be
7315;NGUYEN;Quoc Dat;quocdat.nguyen@student.vinci.be
4426;OPSOMER;Mathias;mathias.opsomer@student.vinci.be
13833;PREBREZA;Dardan;dardan.prebreza@student.vinci.be
12362;RASPE;Nathan;nathan.raspe@student.vinci.be
8271;RICCI;Dorian;dorian.ricci@student.vinci.be
4448;SAOUTI;Redouane;redouane.saouti@student.vinci.be
4452;STEENPUT;Mathieu;mathieu.steenput@student.vinci.be
13144;STEVELINCK;Thibaud;thibaud.stevelinck@student.vinci.be
14694;TAROLI;Matteo;matteo.taroli@student.vinci.be
12329;TEKTAS;Huseyin;huseyin.tektas@student.vinci.be
8812;VANDER AUWERA;Jeremy;jeremy.vanderauwera@student.vinci.be
4454;VAN DRIESSCHE;Jérémy;jeremy.vandriessche@student.vinci.be
12373;VANWERSCH;Thibault;thibault.vanwersch@student.vinci.be
12987;VERNAILLEN;Nicolas;nicolas.vernaillen@student.vinci.be
9918;VORKAPIC;Milenko;milenko.vorkapic@student.vinci.be
14410;WASILEWSKI;Piotr;piotr.wasilewski@student.vinci.be
