\relax 
\providecommand\hyper@newdestlabel[2]{}
\catcode `:\active 
\catcode `;\active 
\catcode `!\active 
\catcode `?\active 
\providecommand\HyperFirstAtBeginDocument{\AtBeginDocument}
\HyperFirstAtBeginDocument{\ifx\hyper@anchor\@undefined
\global\let\oldcontentsline\contentsline
\gdef\contentsline#1#2#3#4{\oldcontentsline{#1}{#2}{#3}}
\global\let\oldnewlabel\newlabel
\gdef\newlabel#1#2{\newlabelxx{#1}#2}
\gdef\newlabelxx#1#2#3#4#5#6{\oldnewlabel{#1}{{#2}{#3}}}
\AtEndDocument{\ifx\hyper@anchor\@undefined
\let\contentsline\oldcontentsline
\let\newlabel\oldnewlabel
\fi}
\fi}
\global\let\hyper@last\relax 
\gdef\HyperFirstAtBeginDocument#1{#1}
\providecommand\HyField@AuxAddToFields[1]{}
\providecommand\HyField@AuxAddToCoFields[2]{}
\select@language{french}
\@writefile{toc}{\select@language{french}}
\@writefile{lof}{\select@language{french}}
\@writefile{lot}{\select@language{french}}
\@writefile{toc}{\contentsline {section}{\numberline {1}Introduction}{2}{section.1}}
\newlabel{RF1}{3}
\@writefile{toc}{\contentsline {section}{\numberline {2}Analyse}{3}{section.2}}
\@writefile{toc}{\contentsline {subsection}{\numberline {2.1}Prototypes des interfaces et vues actuelles}{3}{subsection.2.1}}
\@writefile{toc}{\contentsline {subsubsection}{\numberline {2.1.1}Vues externes}{3}{subsubsection.2.1.1}}
\@writefile{lof}{\contentsline {figure}{\numberline {1}{\ignorespaces Prototype de la vue login.php en semaine 2.}}{3}{figure.1}}
\@writefile{lof}{\contentsline {figure}{\numberline {2}{\ignorespaces Screenshot de la vue login.php au stade final.}}{3}{figure.2}}
\newlabel{RF2}{4}
\@writefile{lof}{\contentsline {figure}{\numberline {3}{\ignorespaces Prototype de la vue student.php en semaine 2.}}{4}{figure.3}}
\@writefile{lof}{\contentsline {figure}{\numberline {4}{\ignorespaces Screenshot de la vue student.php au stade final.}}{4}{figure.4}}
\newlabel{RF3}{5}
\@writefile{lof}{\contentsline {figure}{\numberline {5}{\ignorespaces Prototype de la vue form.php en semaine 2.}}{5}{figure.5}}
\@writefile{lof}{\contentsline {figure}{\numberline {6}{\ignorespaces Screenshot de la vue form.php au stade final.}}{5}{figure.6}}
\newlabel{RF4}{6}
\@writefile{lof}{\contentsline {figure}{\numberline {7}{\ignorespaces Prototype de la vue form.php en semaine 2.}}{6}{figure.7}}
\@writefile{lof}{\contentsline {figure}{\numberline {8}{\ignorespaces Screenshot de la vue form.php au stade final.}}{6}{figure.8}}
\newlabel{RF5}{7}
\@writefile{toc}{\contentsline {subsubsection}{\numberline {2.1.2}Vues internes}{7}{subsubsection.2.1.2}}
\@writefile{lof}{\contentsline {figure}{\numberline {9}{\ignorespaces Prototype de "la vue admin.php" en semaine 2.}}{7}{figure.9}}
\@writefile{lof}{\contentsline {figure}{\numberline {10}{\ignorespaces Screenshot de la vue internships\_list\_admin.php au stade final.}}{7}{figure.10}}
\newlabel{RF6}{8}
\@writefile{lof}{\contentsline {figure}{\numberline {11}{\ignorespaces Screenshot de la vue students\_list\_admin.php au stade final.}}{8}{figure.11}}
\@writefile{lof}{\contentsline {figure}{\numberline {12}{\ignorespaces Screenshot de la vue teachers\_list\_admin.php au stade final.}}{8}{figure.12}}
\newlabel{RF7}{9}
\@writefile{lof}{\contentsline {figure}{\numberline {13}{\ignorespaces Screenshot de la vue contacts\_list\_admin.php au stade final au stade final.}}{9}{figure.13}}
\@writefile{lof}{\contentsline {figure}{\numberline {14}{\ignorespaces Screenshot de la vue companies\_list\_admin.php au stade final.}}{9}{figure.14}}
\newlabel{RF8}{10}
\@writefile{lof}{\contentsline {figure}{\numberline {15}{\ignorespaces Prototype de la vue supervisor.php en semaine 2.}}{10}{figure.15}}
\@writefile{lof}{\contentsline {figure}{\numberline {16}{\ignorespaces Screenshot de la vue superviseur au stade final.}}{10}{figure.16}}
\@writefile{toc}{\contentsline {subsection}{\numberline {2.2}Diagramme de structure de donn\'ees}{11}{subsection.2.2}}
\@writefile{lof}{\contentsline {figure}{\numberline {17}{\ignorespaces Diagramme de structure de donnn\'ees}}{11}{figure.17}}
\newlabel{RF9}{12}
\@writefile{toc}{\contentsline {subsection}{\numberline {2.3}Diagrammes de navigation}{12}{subsection.2.3}}
\@writefile{lof}{\contentsline {figure}{\numberline {18}{\ignorespaces Diagramme de navigation}}{12}{figure.18}}
\@writefile{toc}{\contentsline {section}{\numberline {3}Organisation du projet}{13}{section.3}}
\@writefile{toc}{\contentsline {subsection}{\numberline {3.1}Organisation des t\^aches}{13}{subsection.3.1}}
\@writefile{lot}{\contentsline {table}{\numberline {1}{\ignorespaces Organisation des t\^aches}}{13}{table.1}}
\gdef \LT@i {\LT@entry 
    {1}{69.70549pt}\LT@entry 
    {1}{183.11652pt}\LT@entry 
    {1}{168.89014pt}}
\@writefile{toc}{\contentsline {subsection}{\numberline {3.2}Agenda de l'application}{14}{subsection.3.2}}
\newlabel{RF10}{16}
\@writefile{toc}{\contentsline {subsection}{\numberline {3.3}Le board de Trello}{16}{subsection.3.3}}
\@writefile{lof}{\contentsline {figure}{\numberline {19}{\ignorespaces Screenshot du board trello le 14/05/2016 \`a 23H55}}{16}{figure.19}}
\@writefile{toc}{\contentsline {subsection}{\numberline {3.4}Le partage}{17}{subsection.3.4}}
\@writefile{toc}{\contentsline {paragraph}{Le logiciel de versionning Git (Bitbucket )}{17}{section*.2}}
\@writefile{lof}{\contentsline {figure}{\numberline {20}{\ignorespaces Capture d'\'ecran du d\'ep\^ot Bitbucket du projet }}{17}{figure.20}}
\@writefile{toc}{\contentsline {paragraph}{Le site de gestion de t\^aches Trello }{17}{section*.3}}
\@writefile{toc}{\contentsline {paragraph}{Le r\'eseau social Facebook }{18}{section*.4}}
\@writefile{toc}{\contentsline {paragraph}{L'\'editeur de texte \LaTeX  }{18}{section*.5}}
\@writefile{toc}{\contentsline {section}{\numberline {4}\'{E}tat des lieux de l'application}{18}{section.4}}
\newlabel{EDL}{{4}{18}{\'{E}tat des lieux de l'application}{section.4}{}}
\@writefile{toc}{\contentsline {subsection}{\numberline {4.1}G\'en\'eral}{18}{subsection.4.1}}
\@writefile{toc}{\contentsline {subsubsection}{\numberline {4.1.1}Attention}{18}{subsubsection.4.1.1}}
\newlabel{probAff}{{4.1.1}{18}{Attention}{subsubsection.4.1.1}{}}
\@writefile{toc}{\contentsline {subsubsection}{\numberline {4.1.2}Librairies utilis\'ees}{18}{subsubsection.4.1.2}}
\@writefile{toc}{\contentsline {subsubsection}{\numberline {4.1.3}Choix partial}{19}{subsubsection.4.1.3}}
\@writefile{toc}{\contentsline {subsection}{\numberline {4.2}Corrections \`a effectuer}{19}{subsection.4.2}}
\@writefile{toc}{\contentsline {subsubsection}{\numberline {4.2.1}Vue interne}{19}{subsubsection.4.2.1}}
\@writefile{toc}{\contentsline {paragraph}{teachers\_list\_admin.php}{19}{section*.6}}
\@writefile{toc}{\contentsline {subsubsection}{\numberline {4.2.2}Vue externe}{19}{subsubsection.4.2.2}}
\newlabel{loginToMod}{{4.2.2}{19}{login.php}{section*.7}{}}
\@writefile{toc}{\contentsline {paragraph}{login.php}{19}{section*.7}}
\@writefile{toc}{\contentsline {subsection}{\numberline {4.3}Am\'eliorations effectu\'ees}{20}{subsection.4.3}}
\@writefile{toc}{\contentsline {subsubsection}{\numberline {4.3.1}Vues internes}{20}{subsubsection.4.3.1}}
\@writefile{toc}{\contentsline {paragraph}{internships\_list\_admin.php}{20}{section*.8}}
\@writefile{toc}{\contentsline {paragraph}{students\_list\_admin.php}{20}{section*.9}}
\@writefile{toc}{\contentsline {paragraph}{teachers\_list\_admin.php}{20}{section*.10}}
\@writefile{toc}{\contentsline {paragraph}{contacts\_list\_admin.php}{20}{section*.11}}
\@writefile{toc}{\contentsline {paragraph}{companies\_list\_admin.php}{21}{section*.12}}
\@writefile{toc}{\contentsline {paragraph}{supervisor.php}{21}{section*.13}}
\@writefile{toc}{\contentsline {subsubsection}{\numberline {4.3.2}Vue externe}{21}{subsubsection.4.3.2}}
\@writefile{toc}{\contentsline {paragraph}{form.php}{21}{section*.14}}
\@writefile{toc}{\contentsline {subsection}{\numberline {4.4}Id\'ees d'am\'eliorations}{21}{subsection.4.4}}
\@writefile{toc}{\contentsline {subsubsection}{\numberline {4.4.1}Vues internes}{21}{subsubsection.4.4.1}}
\@writefile{toc}{\contentsline {paragraph}{internship\_agreement et export\_internship}{21}{section*.15}}
\newlabel{latexPdf}{{1}{22}{Code php pour compiler un fichier \LaTeX }{lstlisting.1}{}}
\@writefile{lol}{\contentsline {lstlisting}{\numberline {1}Code php pour compiler un fichier \LaTeX  }{22}{lstlisting.1}}
\newlabel{it_to_add}{{4.4.1}{22}{internships\_list\_admin.php}{section*.16}{}}
\@writefile{toc}{\contentsline {paragraph}{internships\_list\_admin.php}{22}{section*.16}}
\newlabel{suppresionAnciensFichiers}{{2}{22}{Script bash remove\_old\_pdf.sh pour supprimer les pdf de plus d'un jour se trouvant sur la racine du serveur}{lstlisting.2}{}}
\@writefile{lol}{\contentsline {lstlisting}{\numberline {2}Script bash remove\_old\_pdf.sh pour supprimer les pdf de plus d'un jour se trouvant sur la racine du serveur}{22}{lstlisting.2}}
\newlabel{delete_old_pdf}{{3}{23}{Code php pour utiliser le script bash de suppresions de vieux fichiers pdf}{lstlisting.3}{}}
\@writefile{lol}{\contentsline {lstlisting}{\numberline {3}Code php pour utiliser le script bash de suppresions de vieux fichiers pdf.}{23}{lstlisting.3}}
\@writefile{toc}{\contentsline {paragraph}{students\_list\_admin.php}{24}{section*.17}}
\@writefile{toc}{\contentsline {subsubsection}{\numberline {4.4.2}Vues externes}{24}{subsubsection.4.4.2}}
\@writefile{toc}{\contentsline {paragraph}{student.php}{24}{section*.18}}
\@writefile{toc}{\contentsline {paragraph}{form.php}{24}{section*.19}}
\@writefile{toc}{\contentsline {section}{\numberline {5}Conclusion}{25}{section.5}}
